"0","genes <- data.frame(proefdier = factor(rep(c(paste0(""kat"",1:3), "
"0","                                             paste0(""hond"", 1:3),"
"0","                                             paste0(""cavia"",1:3)), 2)),"
"0","                    logexpressie = c(3.12, 4.78, 3.55, 2.88, 2.09, 3.11, 5.01, 4.79, 5.52,"
"0","                                     2.81, 4.33, 3.08, 2.25, 1.77, 2.70, 4.55, 4.18, 5.37),"
"0","                    toestand = factor(c(rep(""actief"", 9), rep(""rust"", 9))) )"
"0","genes"
