"0","library('PoiClaClu')"
"0","library('ggplot2')"
"0","# Use the raw (not r-log transformed!) counts  WE USED THE NORMAlIZED"
"0","dds <- assay(ddsMat)"
"0","poisd <- PoissonDistance( t(dds) )"
"0","# Extract the matrix with distances"
"0","samplePoisDistMatrix <- as.matrix(poisd$dd)"
"0","# Calculate the MDS and get the X- and Y-coordinates"
"0","mdsPoisData <- data.frame( cmdscale(samplePoisDistMatrix) )"
"0",""
"0","# And set some better readable names for the columns"
"0","names(mdsPoisData) <- c('x_coord', 'y_coord')"
"0",""
"0","# Separate the annotation factor (as the variable name is used as label)"
"0","groups <- factor(c(rep(1,5),rep(2,5),rep(3,5)), "
"0","                 labels = c(""Healthy"",""infected"",""treated""))"
"0","coldata <- names(dataset)"
"0",""
"0","# Create the plot using ggplot"
"0","ggplot(mdsPoisData, aes(x_coord, y_coord, color = groups, label = coldata)) + "
"0","  geom_text(size = 4) +"
"0","  ggtitle('Multi Dimensional Scaling') +"
"0","  labs(x = ""Poisson Distance"", y = ""Poisson Distance"") +"
"0","  theme_bw()"
